{
  "defaultSeverity": "error",
  "extends": ["tslint:all"],
  "jsRules": {},
  "rules": {
    "no-unsafe-any": false,
    "no-unused-variable": [false],
    "typedef": [false]
  },
  "rulesDirectory": []
}
